module warp-go/tun/netstack

go 1.18

require (
	golang.org/x/net v0.0.0-20220225172249-27dd8689420f
	warp-go v0.0.0-20220316235147-5aff28b14c24
	gvisor.dev/gvisor v0.0.0-20211020211948-f76a604701b6
)

require (
	github.com/google/btree v1.0.1 // indirect
	golang.org/x/crypto v0.0.0-20220315160706-3147a52a75dd // indirect
	golang.org/x/sys v0.0.0-20220315194320-039c03cc5b86 // indirect
	golang.org/x/time v0.0.0-20191024005414-555d28b269f0 // indirect
	golang.zx2c4.com/wintun v0.0.0-20211104114900-415007cec224 // indirect
)
